<?xml version="1.0" standalone="no"?>
<!DOCTYPE svg PUBLIC "-//W3C//DTD SVG 1.1//EN" "http://www.w3.org/Graphics/SVG/1.1/DTD/svg11.dtd">
<svg xmlns="http://www.w3.org/2000/svg">
<metadata>Copyright (C) 2017 by original authors @ fontello.com</metadata>
<defs>
<font id="fontello" horiz-adv-x="1000" >
<font-face font-family="fontello" font-weight="400" font-stretch="normal" units-per-em="1000" ascent="850" descent="-150" />
<missing-glyph horiz-adv-x="1000" />
<glyph glyph-name="medalla" unicode="&#xe800;" d="M781 553c0 18-32 32-36 49-3 17 22 43 15 59-7 16-42 17-52 31-10 15 3 48-9 60-5 5-12 6-21 6-7 0-14-1-20-1-8 0-14 1-19 4-14 10-15 45-31 52-2 1-4 1-6 1-15 0-35-16-50-16-1 0-2 0-3 0-17 4-31 36-49 36-18 0-32-32-49-36-1 0-2 0-3 0-15 0-35 16-50 16-2 0-4 0-6-1-16-7-16-42-31-52-5-3-11-4-19-4-6 0-13 1-20 1-8 0-16-1-21-6-12-12 1-45-9-60-9-14-45-15-52-31-6-16 18-42 15-59-4-17-36-31-36-49 0-18 33-32 36-49 3-17-21-43-15-58 7-17 43-17 52-32 10-14-1-47 11-59 3-3 6-5 14-5 0 0 20 0 26 0 8 0 14-1 19-4 14-10 14-46 31-53 1 0 3-1 6-1 1 0 3 0 5 1 1 0 1 0 2 0 1 1 2 1 4 2 1 0 2 0 2 1 2 0 3 0 4 1 1 1 2 1 4 2 1 0 2 1 3 1l29 14 23-25c3-3 5-5 7-7 0 0 0-1 0-1 2-1 4-3 6-4 1-1 1-1 2-2 1 0 3-1 4-2 2-1 4-1 6-1s4 0 6 1c1 1 3 2 4 2 1 1 1 1 2 2 2 1 4 3 6 4 0 1 0 1 0 1 2 2 4 4 7 7l23 25 29-14c1 0 2-1 4-1 1-1 2-1 3-2 1-1 3-1 4-1 1-1 1-1 2-1 2-1 3-1 4-2 1 0 2 0 2 0 2-1 4-1 6-1 2 0 4 1 6 1 16 7 17 43 31 52 5 3 11 4 19 4 6 0 33 2 33 2s7 1 10 4c12 12-2 45 8 60 10 14 45 14 51 31 7 16-18 41-14 58 3 17 35 31 35 49z m-82-40c-3-17 1-32 6-45-12-5-26-13-36-28-10-14-12-30-12-44-12 0-29-1-44-12-15-10-23-23-28-36-9 4-20 7-33 7-4 0-8 0-12-1-18-4-30-14-40-23-10 9-22 19-40 23-4 1-8 1-12 1-13 0-24-3-33-7-5 13-13 26-28 36-15 11-32 12-44 12 0 14-2 30-12 44-10 15-24 23-36 28 5 13 9 28 6 45-4 18-14 31-23 40 9 10 19 22 23 40 3 17-1 33-6 45 12 6 26 13 36 28 10 15 12 31 12 44 12 0 29 2 44 12 15 10 23 24 28 36 9-3 20-7 33-7 4 0 8 1 12 1 18 4 30 14 40 24 10-10 22-20 40-24 4 0 8-1 12-1 13 0 24 4 33 7 5-12 13-26 28-36 15-10 32-12 44-12 0-13 2-29 12-44 10-15 24-22 36-28-5-12-9-28-6-45 4-18 14-30 23-40-9-9-19-22-23-40z m-97-268c-17 0-31 6-43 12-11-13-30-32-59-32s-47 19-59 32c-12-6-26-12-43-12-8 0-16 2-23 5-6 2-15 6-15 9v-393l141 136 141-136v390 2c0-6-10-6-16-8-8-3-16-5-24-5z" horiz-adv-x="1000" />

<glyph glyph-name="dinero-transaction" unicode="&#xe801;" d="M779 434l110-62c7-4 9-1 9 6v35h94v46h-94v43c0 8-2 10-9 7l-112-62c-6-3-5-10 2-13z m208-190l-111 62c-6 3-9 0-9-7v-43h-94v-47h94v-34c0-7 3-10 9-6l112 61c6 4 5 10-1 14z m-162-97h-255v31h157v31h-157v32h157v31h-157v31h157 94c1 16 7 31 14 31h-265v32h227l-64 47h-171l-11 125h277l3-10c0 0 44 23 48 25l-9 31h-329l-3 16h-133l-4-16h-328l-63-218h357v-32h-359v-31h359v-31h-359v-31h359v-32h-359v-31h359v-31h-359v-31h359v-16h203v20l297 0c0 0-33 11-42 27z m-444 266h-293l26 125h277l-10-125z" horiz-adv-x="1000" />

<glyph glyph-name="icn_t-iconlib_b18-64px" unicode="&#xe802;" d="M250 84h-187v291l62 63v240h63v-178l203 203 328-328v-55l31-17h31v87l-393 391-137-134c0 0-1 20-1 31 0 29-23 63-62 63h-63c-47 0-62-31-62-62l0-226-63-62v-369h250v62z m750-25v31h-250v32h230l-63 140h-203l-4 16h-123l-2-16h-213l-63-140h238v-32h-250v-31h250v-31h-250v-31h250v-32h-250v-31h250v-15h203v15h250v31h-250v32h250v31h-250v31h250z m-436 110h-177l26 46h161l-10-46z m170 0l-10 46h152l26-46h-168z" horiz-adv-x="1000" />

<glyph glyph-name="icn_t-iconlib_b21-64px" unicode="&#xe803;" d="M555 364c-73-89-73-219 0-308l90 89c-26 40-26 91 0 130l-90 89z m123-56c39 26 90 26 129 0l89 89c-89 74-218 74-308 0l90-89z m251 56l-89-89c26-39 26-90 0-130l89-89c74 89 74 219 0 308z m-251-252l-90-89c90-74 219-74 308 0l-89 89c-39-26-90-26-129 0z m-162-82h-438v296l63 63v235h62v-173l203 203 172-188c8 7 48 14 60 15 0 1 1 1 2 1l-233 250-142-140c0 63 1 95-62 95h-62c-63 0-63-32-63-94v-189l-62-62v-374c-2 1 569 0 569 0-9 6-68 61-69 62z" horiz-adv-x="1000" />

<glyph glyph-name="icn_t-iconlib_b26-64px" unicode="&#xe804;" d="M78 767h523l45 47h-569c-37 0-46-4-46-41v-570l47 46v518z m654 57l-694-694 232-232 694 694-232 232z m-467-866l-167 166 48 48 67-66 11 11-67 66 56 55 66-66 11 11-66 66 55 56 66-67 11 11-66 67 55 55 67-66 11 11-67 66 56 55 99-99 11 11-99 99 55 55 66-66 11 11-66 66 55 56 66-67 11 11-66 67 55 55 67-66 11 11-67 66 56 55 66-66 11 11-66 66 44 45 167-167-634-633z" horiz-adv-x="1000" />

<glyph glyph-name="icn_t-iconlib_b27-64px" unicode="&#xe805;" d="M500 473c-70 0-117-69-117-133 0-13 10-23 23-23s24 10 24 23c0 42 28 86 70 86 13 0 23 11 23 24s-10 23-23 23z m222 106c10-9 24-9 34 0l99 99c9 9 9 24 0 33-9 10-24 10-33 0l-100-99c-9-9-9-24 0-33l0 0z m-478 0c9-9 24-9 33 0v0c9 9 9 24 0 33l-100 99c-9 10-24 10-33 0-9-9-9-24 0-33l100-99z m527-352c-9 9-24 9-33 0v0c-9-9-9-24 0-33l100-100c9-9 24-9 33 0s9 25 0 34l-100 99z m-510 0c-9 9-24 9-33 0l-99-99c-9-9-9-24 0-34s24-9 33 0l99 100c9 9 9 24 0 33l0 0z m232 395c13 0 24 10 24 23v141c0 12-12 17-25 17h0c-13 0-22-6-22-19v-139c0-13 10-23 23-23z m-274-233c0 13-11 24-24 24h-140c-13 0-24-11-24-24s11-23 24-23h140c13 0 24 10 24 23z m726 24h-140c-13 0-24-11-24-24s11-23 24-23h140c13 0 24 10 24 23s-11 24-24 24z m-442 169c-125 0-227-101-227-226 0-68 58-145 58-145 11-14 22-40 24-58l20-89c2-17 29-32 45-32v-67l46-68h78l48 68v67c31 0 36 15 39 32l12 89c2 18 13 44 24 58 0 0 59 77 59 145 0 125-101 226-226 226z m116-332c-17-23-32-58-36-87l-8-63h-145l-8 63c-3 29-18 64-36 88-15 19-45 70-45 105 0 90 72 162 162 162 89 0 162-73 162-162 0-33-28-83-46-106z" horiz-adv-x="1000" />

<glyph glyph-name="icn_t-iconlib_c06-64px" unicode="&#xe806;" d="M602 397h359l-63 219h-328l-4 15h-132l-4-15h-328l-63-219h359v-31h-359v-32h359v-31h-359v-31h359v-31h-359v-32h359v-31h-359v-31h359v-31h-359v-32h359v-15h204v15h359v32h-359v31h359v31h-359v31h359v32h-359v31h359v31h-359v31h359v32h-359v31z m-193 47h-292l26 125h277l-11-125z m182 0l-11 125h277l26-125h-292z" horiz-adv-x="1000" />

<glyph glyph-name="icn_t-iconlib_c07-64px" unicode="&#xe807;" d="M407 555c28-14 59-21 93-21 30 0 57 6 82 16 34 41 109 138 109 191 0 1-1 2-1 2 0 2-1 4-1 6-9 18-45-13-91-6-30 4-64 50-98 50-32 0-65-45-93-49-48-7-86 24-95 6-1-3-2-6-3-9 1-51 65-143 98-186z m223-31c-42-29-72-33-130-33-58 0-94 7-136 37-107-95-245-228-245-350 0-203 171-270 381-270s381 67 381 270c0 122-144 252-251 346z m-114-268v-31h-47v-31h47v-31h-47v-6c0-26 14-41 38-41h15c25 0 37 15 37 31h41c0-47-32-78-78-78h-15c-45 0-85 40-85 87v7h-31v31h31v31h-31v31h31v9c0 48 40 85 85 85h15c46 0 78-31 78-78h-41c0 16-12 31-37 31h-15c-23 0-38-12-38-38v-9h47z" horiz-adv-x="1000" />

<glyph glyph-name="icn_t-iconlib_d03-64px" unicode="&#xe808;" d="M818 595c-54 81-144 130-242 130-58 0-113-17-162-49-65-42-110-108-126-184-6-28-8-56-6-84 15 4 31 7 47 8-2 22 0 44 5 66 13 64 51 119 106 155 41 27 88 41 136 41 82 0 158-41 202-108 60-92 51-213-24-296l-7-9-14-74-74 17-11-4c-24-8-48-12-73-12 0-16-1-32-3-47 30 0 60 5 89 14l109-24 20 109c88 98 99 242 28 351z m-538-605l-4 1-71-16-13 71-3 3c-63 70-71 174-20 251 62 95 191 121 288 58 96-63 124-192 61-287-51-78-149-111-238-81" horiz-adv-x="1000" />

<glyph glyph-name="icn_t-iconlib_e02-64px" unicode="&#xe809;" d="M389 406c-6 19-23 30-43 30h-16c-20 0-38-16-44-31h-53c-6 15-23 31-44 31h-15c-21 0-38-11-44-30-54-1-98-43-98-100l-1-361v-56h49 359 45v56l1 361c0 57-42 99-96 100z m-311-102c0 32 26 54 55 54h254c29 0 50-22 50-54v-40h-359v40z m2-368l0 297h359l0-297h-359z m791 875h-254c-55 0-101-42-101-99l-1-767v-56h49 360 44v56l1 767c0 57-43 99-98 99z m-309-100c0 31 26 53 55 53h254c29 0 50-22 50-53v-197h-359v197z m2-775l0 531h360l0-531h-360z" horiz-adv-x="1000" />

<glyph glyph-name="icn_t-iconlib_g02-64px" unicode="&#xe80a;" d="M502 819l-221-218v77c0 26-21 55-47 55h-108c-26 0-48-29-48-55v-281l-47-46v-470c11 0 937 0 938 0v468l-467 470z m420-883h-328c0 0 0-7 0-7v234c0 25-21 54-47 54h-93c-26 0-48-29-48-54v-234c0 0 1 7 1 7h-329v394l424 422 420-422v-394z" horiz-adv-x="1000" />

<glyph glyph-name="icn_t-iconlib_g03-64px" unicode="&#xe80b;" d="M508 856h-16c-227 0-398-145-398-353 0-276 375-635 391-647l14-12 14 10c16 12 393 371 393 647 0 206-175 355-398 355z m-9-954c-68 57-358 376-358 601 0 181 151 307 351 307h16c200 0 351-127 351-309 0-225-291-543-360-599z m1 789c-134 0-242-108-242-242s108-242 242-242 242 109 242 242-108 242-242 242z m0-453c-116 0-211 95-211 211s95 211 211 211 211-94 211-211-95-211-211-211z" horiz-adv-x="1000" />

<glyph glyph-name="icn_t-iconlib_g13-64px" unicode="&#xe80c;" d="M500 819c-259 0-469-210-469-469 0-259 210-469 469-469 259 0 469 210 469 469 0 259-210 469-469 469z m0-891c-232 0-422 189-422 422 0 233 190 422 422 422 233 0 422-189 422-422 0-233-189-422-422-422z m-63 208c-12 0-24 5-33 14l-132 132c-18 18-18 48 0 66 18 19 48 19 66 0l95-94 225 291c16 21 45 25 66 9 20-16 24-45 8-66l-258-333c-8-11-21-18-34-18-1 0-2-1-3-1z" horiz-adv-x="1000" />

<glyph glyph-name="icn_t-iconlib_g27-64px" unicode="&#xe80d;" d="M875 748h-23v-46h46v-141h-796v141h46v46h-30c-37 0-63-13-63-50v-746h890v746c0 37-33 50-70 50z m23-750h-796v516h796v-516z" horiz-adv-x="1000" />

<glyph glyph-name="icn_t-iconlib_l01-64px" unicode="&#xe80e;" d="M831 819h-656c-26 0-50-18-50-44v-894h516l234 234v660c0 26-18 44-44 44z m-175-852v133h142l-142-133z m172 808v-628h-219v-219h-437v3 841h656v3z m-503-633c36 0 90 79 91 80 7 9 13 20 20 32 8 3 16 6 22 7l1 1c28 9 59 16 93 19 7-5 14-10 21-13 14-8 40-16 65-16 33 0 55 13 61 38 2 10 0 19-5 26-11 14-37 21-79 21-13 0-27-1-37-1-24 21-44 51-62 77-2 3-4 7-7 12 8 30 22 97 0 126-8 10-19 14-33 13-16-1-28-8-36-19-20-29-8-83 1-112 3-7 5-14 8-21-4-11-8-22-12-32-10-28-24-57-40-88-4-3-9-5-13-7-30-16-97-60-83-117 5-21 16-26 24-26z m159 236c14-20 28-39 44-56-25-5-51-11-76-18 11 23 22 48 32 74z" horiz-adv-x="1000" />

<glyph glyph-name="icn_t-iconlib_n01-64px" unicode="&#xe80f;" d="M922 397h-47v49 100c0 25-22 38-49 38h-92v141h-468v-141h-92c-26 0-49-13-49-38v-100-49h-47c-26 0-47-11-47-37v-282-56h47 188v-47h468v47h188 47v56 282c0 26-21 37-47 37z m-625 297h406v-219h-406v219z m406-616v-47-25h-406v25 47 131h406v-131z m219 235v-244h-188v94h94v93h-93-469-94v-93h94v-94h-188v244 35c0 7 6 2 12 2h35 375 410c7 0 12 5 12-2v-35z" horiz-adv-x="1000" />

<glyph glyph-name="icn_t-iconlib_n04-64px" unicode="&#xe810;" d="M884 475c18 19 22 53 4 72l-188 187c-18 18-52 14-71-4l-77-78-352-352c-10-10-22-30-26-44 0 0-74-301-73-302l314 72c14 4 34 15 44 25 0 0 428 428 425 424z m-637-216l33 33 166-166c-11-11 0 0 0 0-11-11-26-25-37-37 0-1-153-38-153-38l-53 53 44 155z" horiz-adv-x="1000" />

<glyph glyph-name="icn_t-iconlib_n06-64px" unicode="&#xe811;" d="M758 713c0 7-5 12-12 12h-492c-7 0-12-5-12-12v-164c0-6 5-11 12-11h492c7 0 12 5 12 11v164z m47 106h-612c-26 0-45-15-45-46v-892h704v892c0 31-16 46-47 46z m0-891h-610v844h610v-844z" horiz-adv-x="1000" />

<glyph glyph-name="icn_t-iconlib_t01-64px" unicode="&#xe812;" d="M824 664c-103 102-244 161-385 161v-71c125 0 246-51 335-140 89-89 121-210 121-335h70c0 140-39 283-141 385z m-120-338h71c0 78-33 150-86 203-54 53-125 86-203 86v-70c62 0 113-26 153-66 40-40 65-91 65-153z m-61-77c-9 9-24 8-33 0-1-1-2-2-4-3l-89-89-200 201 89 89c1 1 2 2 3 4 9 9 8 23 0 32l-164 164c-9 8-23 8-33 0-1-1-2-2-3-3l-145-145c-39-39-39-102 0-141l398-398 58-57c0-1 1-2 2-2 39-35 100-34 137 3l144 145c2 1 3 2 4 4 9 9 8 23-1 32l-163 164z m-17-311c-20-21-53-21-74-1 0 0-1 0-1 1l-426 425-27 28c-21 21-21 55 0 75l130 131 131-131-92-92c-9-9-9-24 0-33l234-234c9-9 24-9 33 0l92 92 131-131-131-130z" horiz-adv-x="1000" />
</font>
</defs>
</svg>